[
  {"title": "Maybach S-Клас", "price": "200 000", "imgUrl": "./cars/1Maybach.png", "article": "111111", "color": "black"},
  {"title": "Maybach GLS", "price": "195 000", "imgUrl": "./cars/2MaybachGLS.png", "article": "222222", "color": "black"},
  {"title": "С-Клас Седан", "price": "40 000", "imgUrl": "./cars/3C.png", "article": "333333", "color": "white"},
  {"title": "Е-Клас Седан", "price": "55 000", "imgUrl": "./cars/4E.png", "article": "444444", "color": "white"},
  {"title": "S-Клас Седан", "price": "115 000", "imgUrl": "./cars/5S.png", "article": "555555", "color": "white"},
  {"title": "EQA", "price": "60 000", "imgUrl": "./cars/6EQA.png", "article": "666666", "color": "brown"},
  {"title": "E-Клас Кабріо", "price": "65 000", "imgUrl": "./cars/7Ecabrio.png", "article": "777777", "color": "white"},
  {"title": "CLS Купе", "price": "70 000", "imgUrl": "./cars/8CLS.png", "article": "888888", "color": "gray"},
  {"title": "E-Клас Купе", "price": "57 000", "imgUrl": "./cars/9Ecupe.png", "article": "999999", "color": "red"},
  {"title": "AMG GT Родстер", "price": "190 000", "imgUrl": "./cars/10Rodster.png", "article": "101010", "color": "black"}
]
